Processor/tb_processor.vcd
$date
   Sun Jan 12 18:22:02 2025
$end
$version
  P.58f
$end
$timescale
  1ps
$end
$scope module tb_processor $end
$var wire 1 ^ out [15] $end
$var wire 1 _ out [14] $end
$var wire 1 ` out [13] $end
$var wire 1 a out [12] $end
$var wire 1 b out [11] $end
$var wire 1 c out [10] $end
$var wire 1 d out [9] $end
$var wire 1 e out [8] $end
$var wire 1 f out [7] $end
$var wire 1 g out [6] $end
$var wire 1 h out [5] $end
$var wire 1 i out [4] $end
$var wire 1 j out [3] $end
$var wire 1 k out [2] $end
$var wire 1 l out [1] $end
$var wire 1 m out [0] $end
$var wire 1 }! regdest $end
$var wire 1 ~! alusrc $end
$var wire 1 !" memtoreg $end
$var wire 1 "" regwrite $end
$var wire 1 ?# memread $end
$var wire 1 @# memwrite $end
$var wire 1 %" branch $end
$var wire 1 &" jump $end
$var wire 1 /" out_reg [15] $end
$var wire 1 0" out_reg [14] $end
$var wire 1 1" out_reg [13] $end
$var wire 1 2" out_reg [12] $end
$var wire 1 3" out_reg [11] $end
$var wire 1 4" out_reg [10] $end
$var wire 1 5" out_reg [9] $end
$var wire 1 6" out_reg [8] $end
$var wire 1 7" out_reg [7] $end
$var wire 1 8" out_reg [6] $end
$var wire 1 9" out_reg [5] $end
$var wire 1 :" out_reg [4] $end
$var wire 1 q" out_reg [3] $end
$var wire 1 r" out_reg [2] $end
$var wire 1 s" out_reg [1] $end
$var wire 1 t" out_reg [0] $end
$var wire 1 '" PC [7] $end
$var wire 1 (" PC [6] $end
$var wire 1 )" PC [5] $end
$var wire 1 *" PC [4] $end
$var wire 1 +" PC [3] $end
$var wire 1 ," PC [2] $end
$var wire 1 -" PC [1] $end
$var wire 1 ." PC [0] $end
$var wire 1 <! PC_update [7] $end
$var wire 1 =! PC_update [6] $end
$var wire 1 >! PC_update [5] $end
$var wire 1 ?! PC_update [4] $end
$var wire 1 @! PC_update [3] $end
$var wire 1 A! PC_update [2] $end
$var wire 1 B! PC_update [1] $end
$var wire 1 C! PC_update [0] $end
$var wire 1 ;! jump_signal $end
$var reg 1 Z clk $end
$var reg 1 [ reset $end
$scope module uut $end
$var wire 1 ># clk $end
$var wire 1 |! reset $end
$var wire 1 ^ out [15] $end
$var wire 1 _ out [14] $end
$var wire 1 ` out [13] $end
$var wire 1 a out [12] $end
$var wire 1 b out [11] $end
$var wire 1 c out [10] $end
$var wire 1 d out [9] $end
$var wire 1 e out [8] $end
$var wire 1 f out [7] $end
$var wire 1 g out [6] $end
$var wire 1 h out [5] $end
$var wire 1 i out [4] $end
$var wire 1 j out [3] $end
$var wire 1 k out [2] $end
$var wire 1 l out [1] $end
$var wire 1 m out [0] $end
$var wire 1 }! regdest $end
$var wire 1 ~! alusrc $end
$var wire 1 !" memtoreg $end
$var wire 1 "" regwrite $end
$var wire 1 ?# memread $end
$var wire 1 @# memwrite $end
$var wire 1 %" branch $end
$var wire 1 &" jump $end
$var wire 1 /" out_reg [15] $end
$var wire 1 0" out_reg [14] $end
$var wire 1 1" out_reg [13] $end
$var wire 1 2" out_reg [12] $end
$var wire 1 3" out_reg [11] $end
$var wire 1 4" out_reg [10] $end
$var wire 1 5" out_reg [9] $end
$var wire 1 6" out_reg [8] $end
$var wire 1 7" out_reg [7] $end
$var wire 1 8" out_reg [6] $end
$var wire 1 9" out_reg [5] $end
$var wire 1 :" out_reg [4] $end
$var wire 1 q" out_reg [3] $end
$var wire 1 r" out_reg [2] $end
$var wire 1 s" out_reg [1] $end
$var wire 1 t" out_reg [0] $end
$var wire 1 '" PC [7] $end
$var wire 1 (" PC [6] $end
$var wire 1 )" PC [5] $end
$var wire 1 *" PC [4] $end
$var wire 1 +" PC [3] $end
$var wire 1 ," PC [2] $end
$var wire 1 -" PC [1] $end
$var wire 1 ." PC [0] $end
$var wire 1 <! PC_update [7] $end
$var wire 1 =! PC_update [6] $end
$var wire 1 >! PC_update [5] $end
$var wire 1 ?! PC_update [4] $end
$var wire 1 @! PC_update [3] $end
$var wire 1 A! PC_update [2] $end
$var wire 1 B! PC_update [1] $end
$var wire 1 C! PC_update [0] $end
$var wire 1 ;! jump_signal $end
$scope module uut1 $end
$var wire 1 ># clk $end
$var wire 1 |! reset $end
$var wire 1 ;! jump_signal $end
$var wire 1 <! PC_update [7] $end
$var wire 1 =! PC_update [6] $end
$var wire 1 >! PC_update [5] $end
$var wire 1 ?! PC_update [4] $end
$var wire 1 @! PC_update [3] $end
$var wire 1 A! PC_update [2] $end
$var wire 1 B! PC_update [1] $end
$var wire 1 C! PC_update [0] $end
$var wire 1 /" out_reg [15] $end
$var wire 1 0" out_reg [14] $end
$var wire 1 1" out_reg [13] $end
$var wire 1 2" out_reg [12] $end
$var wire 1 3" out_reg [11] $end
$var wire 1 4" out_reg [10] $end
$var wire 1 5" out_reg [9] $end
$var wire 1 6" out_reg [8] $end
$var wire 1 7" out_reg [7] $end
$var wire 1 8" out_reg [6] $end
$var wire 1 9" out_reg [5] $end
$var wire 1 :" out_reg [4] $end
$var wire 1 q" out_reg [3] $end
$var wire 1 r" out_reg [2] $end
$var wire 1 s" out_reg [1] $end
$var wire 1 t" out_reg [0] $end
$var wire 1 T! instruct_reg [15] $end
$var wire 1 U! instruct_reg [14] $end
$var wire 1 V! instruct_reg [13] $end
$var wire 1 W! instruct_reg [12] $end
$var wire 1 X! instruct_reg [11] $end
$var wire 1 Y! instruct_reg [10] $end
$var wire 1 Z! instruct_reg [9] $end
$var wire 1 [! instruct_reg [8] $end
$var wire 1 \! instruct_reg [7] $end
$var wire 1 ]! instruct_reg [6] $end
$var wire 1 ^! instruct_reg [5] $end
$var wire 1 _! instruct_reg [4] $end
$var wire 1 `! instruct_reg [3] $end
$var wire 1 a! instruct_reg [2] $end
$var wire 1 b! instruct_reg [1] $end
$var wire 1 c! instruct_reg [0] $end
$var wire 1 d! opcode [3] $end
$var wire 1 e! opcode [2] $end
$var wire 1 f! opcode [1] $end
$var wire 1 g! opcode [0] $end
$var reg 1 h! regdest $end
$var reg 1 i! alusrc $end
$var reg 1 j! memtoreg $end
$var reg 1 k! regwrite $end
$var reg 1 l! memread $end
$var reg 1 m! memwrite $end
$var reg 1 n! branch $end
$var reg 1 o! jump $end
$var reg 8 p! PC [7:0] $end
$scope module uut $end
$var wire 1 q! PC [7] $end
$var wire 1 r! PC [6] $end
$var wire 1 s! PC [5] $end
$var wire 1 t! PC [4] $end
$var wire 1 u! PC [3] $end
$var wire 1 v! PC [2] $end
$var wire 1 w! PC [1] $end
$var wire 1 x! PC [0] $end
$var reg 16 y! out [15:0] $end
$var reg 4096 z! ROM [15:0] $end
$upscope $end
$upscope $end
$scope module uut2 $end
$var wire 1 ># clk $end
$var wire 1 |! reset $end
$var wire 1 }! regdest $end
$var wire 1 ~! alusrc $end
$var wire 1 !" memtoreg $end
$var wire 1 "" regwrite $end
$var wire 1 ?# memread $end
$var wire 1 @# memwrite $end
$var wire 1 %" branch $end
$var wire 1 &" jump $end
$var wire 1 '" PC [7] $end
$var wire 1 (" PC [6] $end
$var wire 1 )" PC [5] $end
$var wire 1 *" PC [4] $end
$var wire 1 +" PC [3] $end
$var wire 1 ," PC [2] $end
$var wire 1 -" PC [1] $end
$var wire 1 ." PC [0] $end
$var wire 1 /" instruct_reg [15] $end
$var wire 1 0" instruct_reg [14] $end
$var wire 1 1" instruct_reg [13] $end
$var wire 1 2" instruct_reg [12] $end
$var wire 1 3" instruct_reg [11] $end
$var wire 1 4" instruct_reg [10] $end
$var wire 1 5" instruct_reg [9] $end
$var wire 1 6" instruct_reg [8] $end
$var wire 1 7" instruct_reg [7] $end
$var wire 1 8" instruct_reg [6] $end
$var wire 1 9" instruct_reg [5] $end
$var wire 1 :" instruct_reg [4] $end
$var wire 1 q" instruct_reg [3] $end
$var wire 1 r" instruct_reg [2] $end
$var wire 1 s" instruct_reg [1] $end
$var wire 1 t" instruct_reg [0] $end
$var wire 1 ?" address_reg1 [2] $end
$var wire 1 @" address_reg1 [1] $end
$var wire 1 A" address_reg1 [0] $end
$var wire 1 B" address_reg2 [2] $end
$var wire 1 C" address_reg2 [1] $end
$var wire 1 D" address_reg2 [0] $end
$var wire 1 E" address_dest [2] $end
$var wire 1 F" address_dest [1] $end
$var wire 1 G" address_dest [0] $end
$var wire 1 H" alu_out [15] $end
$var wire 1 I" alu_out [14] $end
$var wire 1 J" alu_out [13] $end
$var wire 1 K" alu_out [12] $end
$var wire 1 L" alu_out [11] $end
$var wire 1 M" alu_out [10] $end
$var wire 1 N" alu_out [9] $end
$var wire 1 O" alu_out [8] $end
$var wire 1 A# alu_out [7] $end
$var wire 1 B# alu_out [6] $end
$var wire 1 C# alu_out [5] $end
$var wire 1 D# alu_out [4] $end
$var wire 1 E# alu_out [3] $end
$var wire 1 F# alu_out [2] $end
$var wire 1 G# alu_out [1] $end
$var wire 1 H# alu_out [0] $end
$var wire 1 X" data_out [15] $end
$var wire 1 Y" data_out [14] $end
$var wire 1 Z" data_out [13] $end
$var wire 1 [" data_out [12] $end
$var wire 1 \" data_out [11] $end
$var wire 1 ]" data_out [10] $end
$var wire 1 ^" data_out [9] $end
$var wire 1 _" data_out [8] $end
$var wire 1 `" data_out [7] $end
$var wire 1 a" data_out [6] $end
$var wire 1 b" data_out [5] $end
$var wire 1 c" data_out [4] $end
$var wire 1 d" data_out [3] $end
$var wire 1 e" data_out [2] $end
$var wire 1 f" data_out [1] $end
$var wire 1 g" data_out [0] $end
$var wire 1 h" neg_flag $end
$var wire 1 i" zero_flag $end
$var wire 1 j" overflow_flag $end
$var reg 16 k" out [15:0] $end
$var reg 1 l" jump_signal $end
$var reg 16 m" alu_in1 [15:0] $end
$var reg 16 n" alu_in2 [15:0] $end
$var reg 128 o" register [15:0] $end
$var reg 16 p" data_mem_data_in [15:0] $end
$scope module uut2 $end
$var wire 1 q" opcode [3] $end
$var wire 1 r" opcode [2] $end
$var wire 1 s" opcode [1] $end
$var wire 1 t" opcode [0] $end
$var wire 1 u" A [15] $end
$var wire 1 v" A [14] $end
$var wire 1 w" A [13] $end
$var wire 1 x" A [12] $end
$var wire 1 y" A [11] $end
$var wire 1 z" A [10] $end
$var wire 1 {" A [9] $end
$var wire 1 |" A [8] $end
$var wire 1 }" A [7] $end
$var wire 1 ~" A [6] $end
$var wire 1 !# A [5] $end
$var wire 1 "# A [4] $end
$var wire 1 ## A [3] $end
$var wire 1 $# A [2] $end
$var wire 1 %# A [1] $end
$var wire 1 &# A [0] $end
$var wire 1 '# B [15] $end
$var wire 1 (# B [14] $end
$var wire 1 )# B [13] $end
$var wire 1 *# B [12] $end
$var wire 1 +# B [11] $end
$var wire 1 ,# B [10] $end
$var wire 1 -# B [9] $end
$var wire 1 .# B [8] $end
$var wire 1 /# B [7] $end
$var wire 1 0# B [6] $end
$var wire 1 1# B [5] $end
$var wire 1 2# B [4] $end
$var wire 1 3# B [3] $end
$var wire 1 4# B [2] $end
$var wire 1 5# B [1] $end
$var wire 1 6# B [0] $end
$var reg 16 7# out [15:0] $end
$var reg 32 8# sr [31:0] $end
$var reg 16 9# hi [15:0] $end
$var reg 16 :# lo [15:0] $end
$var reg 1 ;# overflow_flag $end
$var reg 1 <# zero_flag $end
$var reg 1 =# neg_flag $end
$upscope $end
$scope module uut1 $end
$var wire 1 ># clk $end
$var wire 1 ?# memread $end
$var wire 1 @# memwrite $end
$var wire 1 A# address [7] $end
$var wire 1 B# address [6] $end
$var wire 1 C# address [5] $end
$var wire 1 D# address [4] $end
$var wire 1 E# address [3] $end
$var wire 1 F# address [2] $end
$var wire 1 G# address [1] $end
$var wire 1 H# address [0] $end
$var wire 1 I# data_in [15] $end
$var wire 1 J# data_in [14] $end
$var wire 1 K# data_in [13] $end
$var wire 1 L# data_in [12] $end
$var wire 1 M# data_in [11] $end
$var wire 1 N# data_in [10] $end
$var wire 1 O# data_in [9] $end
$var wire 1 P# data_in [8] $end
$var wire 1 Q# data_in [7] $end
$var wire 1 R# data_in [6] $end
$var wire 1 S# data_in [5] $end
$var wire 1 T# data_in [4] $end
$var wire 1 U# data_in [3] $end
$var wire 1 V# data_in [2] $end
$var wire 1 W# data_in [1] $end
$var wire 1 X# data_in [0] $end
$var reg 16 Y# data_out [15:0] $end
$var reg 4096 Z# RAM [15:0] $end
$upscope $end
$upscope $end
$upscope $end
$upscope $end
$enddefinitions $end
#0
$dumpvars
0Z
0[
x?#
x&"
xq"
x8"
x@#
xs"
x7"
x%"
xr"
x:"
x6"
x}!
x!"
x""
x9"
x~!
xt"
x[!
x*"
xZ!
xY!
xX!
x?!
x2"
xB!
x;!
x+"
x1"
x4"
x/"
x,"
x'"
x<!
x0"
x."
x)"
xC!
xA!
x5"
xc!
xb!
x>!
x`!
x("
x@!
x_!
xa!
x^!
x]!
x=!
x\!
x3"
x-"
xl
xk
xj
xi
xh
xg
xf
xe
xd
xc
xb
xa
x`
x_
x^
xm
xh!
xi!
xj!
xk!
xl!
xm!
xn!
xo!
bx p!
xg!
xD"
xW!
xA"
xB"
xD#
xF#
xA#
xO"
xU!
xF"
xB#
xG#
x@"
xM"
xf!
xC"
xL"
xJ"
xI"
xV!
x?"
xH"
xf"
xT!
xE"
xN"
xe"
xe!
xC#
xd!
xG"
xH#
xE#
xg"
xK"
bx y!
b10010000000110001001000000011000100100000001100010010000000110001001000000011000100100000001100010010000000110001001000000011000100100000001100010010000000110001001000000011000100100000001100010010000000110001001000000011000100100000001100010010000000110001001000000011000100100000001100010010000000110001001000000011000100100000001100010010000000110001001000000011000100100000001100010010000000110001001000000011000100100000001100010010000000110001001000000011000100100000001100010010000000110001001000000011000100100000001100010010000000110001001000000011000100100000001100010010000000110001001000000011000100100000001100010010000000110001001000000011000100100000001100010010000000110001001000000011000100100000001100010010000000110001001000000011000100100000001100010010000000110001001000000011000100100000001100010010000000110001001000000011000100100000001100010010000000110001001000000011000100100000001100010010000000110001001000000011000100100000001100010010000000110001001000000011000100100000001100010010000000110001001000000011000100100000001100010010000000110001001000000011000100100000001100010010000000110001001000000011000100100000001100010010000000110001001000000011000100100000001100010010000000110001001000000011000100100000001100010010000000110001001000000011000100100000001100010010000000110001001000000011000100100000001100010010000000110001001000000011000100100000001100010010000000110001001000000011000100100000001100010010000000110001001000000011000100100000001100010010000000110001001000000011000100100000001100010010000000110001001000000011000100100000001100010010000000110001001000000011000100100000001100010010000000110001001000000011000100100000001100010010000000110001001000000011000100100000001100010010000000110001001000000011000100100000001100010010000000110001001000000011000100100000001100010010000000110001001000000011000100100000001100010010000000110001001000000011000100100000001100010010000000110001001000000011000100100000001100010010000000110001001000000011000100100000001100010010000000110001001000000011000100100000001100010010000000110001001000000011000100100000001100010010000000110001001000000011000100100000001100010010000000110001001000000011000100100000001100010010000000110001001000000011000100100000001100010010000000110001001000000011000100100000001100010010000000110001001000000011000100100000001100010010000000110001001000000011000100100000001100010010000000110001001000000011000100100000001100010010000000110001001000000011000100100000001100010010000000110001001000000011000100100000001100010010000000110001001000000011000100100000001100010010000000110001001000000011000100100000001100010010000000110001001000000011000100100000001100010010000000110001001000000011000100100000001100010010000000110001001000000011000100100000001100010010000000110001001000000011000100100000001100010010000000110001001000000011000100100000001100010010000000110001001000000011000100100000001100010010000000110001001000000011000100100000001100010010000000110001001000000011000100100000001100010010000000110001001000000011000100100000001100010010000000110001001000000011000100100000001100010010000000110001001000000011000100100000001100010010000000110001001000000011000100100000001100010010000000110001001000000011000100100000001100010010000000110001001000000011000100100000001100010010000000110001001000000011000100100000001100010010000000110001001000000011000100100000001100010010000000110001001000000011000100100000001100010010000000110001001000000011000100100000001100010010000000110001001000000011000100100000001100010010000000110001001000000011000100100000001100000000110111001100001000010101000000001001011110000000100010111001010000010011000000100000001100010010000000110001001000000011000100100000001100000000100011001011000010001101100000000101110000000010000111101000001001001010100000000000101100010100000100110001001000000011000000000001011100000000000101100000100011101110100001101110011011100100000110110000001000010010000000100001000110000010000101101010000000010001001000000001000010010100000100101000001000010000000001000000101100010010000000110 z!
bx k"
xl"
bx m"
bx n"
b0 o"
bx p"
xv!
xb"
xd"
0>#
xw!
x^"
xt!
xX"
xY"
xi"
x_"
x]"
xh"
xj"
xa"
x["
xc"
xZ"
0|!
x`"
x\"
xx!
xu!
bx 7#
bx 8#
bx 9#
bx :#
x;#
x<#
x=#
bx Y#
b0 Z#
x)#
xr!
x%#
x3#
x,#
x$#
x"#
xz"
x0#
x##
x2#
xq!
x.#
xs!
x-#
x6#
x~"
x}"
xx"
x/#
x+#
x*#
x(#
x'#
xw"
x!#
x|"
x{"
x4#
xX#
xy"
x&#
xv"
xu"
x5#
x1#
xV#
xS#
xQ#
xL#
xM#
xK#
xW#
xN#
xJ#
xO#
xU#
xT#
xR#
xP#
xI#
$end
#10000
1Z
1>#
#20000
0Z
1[
0?#
0&"
0q"
08"
0@#
1s"
07"
0%"
1r"
0:"
06"
1}!
0!"
1""
09"
1~!
0t"
0[!
0*"
0Z!
1Y!
0X!
0?!
02"
0B!
0;!
0+"
11"
14"
0/"
0,"
0'"
0<!
00"
0."
0)"
1C!
0A!
05"
0c!
1b!
0>!
0`!
0("
1@!
0_!
1a!
0^!
0]!
0=!
0\!
03"
0-"
0l
0k
1j
0i
0h
0g
0f
0e
0d
0c
0b
0a
0`
0_
0^
1m
1h!
1i!
0j!
1k!
0l!
0m!
0n!
0o!
b0 p!
0g!
1D"
0W!
0A"
0B"
0D#
0F#
0A#
0O"
0U!
0F"
0B#
0G#
0@"
0M"
1f!
0C"
0L"
0J"
0I"
1V!
0?"
0H"
0T!
0E"
0N"
1e!
0C#
0d!
0G"
1H#
1E#
0K"
b10010000000110 y!
b1001 k"
0l"
b0 m"
b1001 n"
b0 p"
0v!
0>#
0w!
0t!
0i"
0h"
0j"
1|!
0x!
0u!
b1001 7#
0;#
0<#
0=#
0)#
0r!
0%#
13#
0,#
0$#
0"#
0z"
00#
0##
02#
0q!
0.#
0s!
0-#
16#
0~"
0}"
0x"
0/#
0+#
0*#
0(#
0'#
0w"
0!#
0|"
0{"
04#
0X#
0y"
0&#
0v"
0u"
05#
01#
0V#
0S#
0Q#
0L#
0M#
0K#
0W#
0N#
0J#
0O#
0U#
0T#
0R#
0P#
0I#
#30000
1Z
b0 m"
b1001 n"
b1001 o"
b1001 p"
1>#
1X#
1U#
#40000
0Z
0[
0>#
0|!
#50000
1Z
1:"
0Y!
1X!
1B!
01"
04"
1."
0C!
0@!
1_!
13"
1l
0j
0m
b1 p!
0D"
1G#
1C"
0V!
1G"
0H#
0E#
b100000010110 y!
b10 k"
b0 m"
b10 n"
b0 p"
1>#
1x!
b10 7#
03#
06#
0X#
15#
0U#
#60000
0Z
0>#
#70000
1Z
0s"
0r"
0:"
19"
0~!
1Y!
0X!
14"
0."
1C!
0b!
1@!
0_!
0a!
1^!
03"
1-"
1j
1m
0i!
b10 p!
1D"
1F"
0f!
0C"
0e!
0G"
1H#
1E#
b10000100000 y!
b1011 k"
b1001 m"
b10 n"
b100000000000001001 o"
b10 p"
1>#
1w!
0x!
b1011 7#
1##
06#
1&#
15#
1W#
#80000
0Z
0>#
#90000
1Z
1r"
1~!
1t"
0Y!
1X!
1?!
11"
04"
1."
1c!
0@!
1a!
13"
0j
1i
1i!
b11 p!
1g!
0D"
1D#
1C"
1V!
1e!
0E#
b10100000100101 y!
b10011 k"
b1010 n"
b101100000000000000100000000000001001 o"
b1011 p"
1>#
1x!
b10011 7#
13#
1X#
1U#
#100000
0Z
0>#
#110000
1Z
0r"
0~!
0X!
0?!
0B!
01"
1,"
10"
0."
0C!
1A!
1>!
0a!
03"
0-"
0l
1k
0i
1h
0c
0`
0m
0i!
b100 p!
0D#
1F#
1U!
0G#
0M"
0C"
0J"
0V!
0e!
1C#
0H#
b100000000100001 y!
b100100 k"
b10 n"
b1001100000000000000100000000000001001 o"
b10011 p"
1v!
1>#
0w!
0x!
b100100 7#
03#
0U#
1T#
#120000
0Z
0>#
#130000
1Z
1s"
0t"
1B!
1."
0A!
0c!
1b!
0>!
1l
0k
0h
b101 p!
0g!
0F#
1G#
1f!
0C#
b100000000100010 y!
b10 k"
b10 n"
b10010000000000000000100000000000001001 o"
1>#
1x!
b10 7#
#140000
0Z
0>#
#150000
1Z
1q"
0s"
1r"
1t"
1Y!
1?!
1B!
14"
00"
0."
0C!
1c!
0b!
1`!
1a!
0=!
1-"
1l
1i
0g
0m
b110 p!
1g!
1D"
1D#
0U!
0B#
1G#
0f!
1e!
1d!
0H#
b10000101101 y!
b10010 k"
b10 n"
b1000000000000000100000000000001001 o"
1>#
1w!
0x!
b10010 7#
b10010 8#
b0 9#
b10010 :#
03#
06#
15#
#160000
0Z
0>#
#170000
1Z
0q"
1s"
0r"
0?!
1."
1C!
1b!
0`!
1@!
0a!
1j
0i
1m
b111 p!
0D#
1f!
0e!
0d!
1H#
1E#
b10000100011 y!
b1011 k"
b1001000000000000000100000000000001001 o"
1>#
1x!
b1011 7#
#180000
0Z
0>#
#190000
1Z
0s"
1r"
0t"
0B!
1+"
0,"
0."
0C!
0c!
0b!
0@!
1a!
0-"
0l
0j
0m
b1000 p!
0g!
0G#
0f!
1e!
0H#
0E#
b10000100100 y!
b0 k"
b101100000000000000100000000000001001 o"
0v!
1>#
0w!
1i"
0x!
1u!
b0 7#
1<#
#200000
0Z
0>#
#210000
1Z
1s"
1:"
1~!
0Y!
1X!
1?!
1B!
04"
1/"
10"
1."
0C!
1b!
1>!
0@!
1_!
13"
1l
0j
1i
1h
0m
1i!
b1001 p!
0D"
1D#
1U!
1G#
1f!
1C"
1T!
1C#
1G"
0H#
0E#
b1100100000110110 y!
b110010 k"
b0 m"
b110010 n"
b100000000000001001 o"
b0 p"
1>#
0i"
1x!
b110010 7#
0<#
0##
12#
0X#
0&#
11#
0W#
0T#
#220000
0Z
0>#
#230000
1Z
1q"
18"
0s"
17"
0:"
16"
09"
0~!
1t"
1[!
1Y!
0?!
0B!
14"
0/"
1<!
00"
0."
0C!
1A!
1c!
0b!
0>!
1`!
0@!
0_!
0^!
1]!
1=!
1\!
1-"
0l
1k
0j
0i
0h
1g
1f
1e
1b
0m
0i!
b1010 p!
1g!
1D"
1A"
0D#
1F#
1A#
1O"
0U!
0F"
1B#
0G#
1@"
0f!
1L"
0T!
1E"
0C#
1d!
0G"
0H#
0E#
b110111001101 y!
b100111000100 k"
b110010 m"
b110010 n"
b110010000000000000000000000000000000100000000000001001 o"
b110010 p"
1>#
1w!
0i"
0x!
b100111000100 7#
b100111000100 8#
b100111000100 :#
0<#
1%#
1"#
0##
12#
06#
1!#
0&#
11#
1S#
1W#
1T#
#240000
0Z
0>#
#250000
1Z
1:"
0Y!
0X!
12"
04"
0<!
1."
0A!
1@!
1_!
03"
0k
1j
0f
0e
1`
1_
1^
b1011 p!
0D"
1W!
1B"
0F#
0A#
0O"
0C"
1J"
1I"
1H"
1G"
1E#
b1000111011101 y!
b1110100001001000 k"
b100111000100 n"
b1001110001000000000000110010000000000000000000000000000000100000000000001001 o"
1>#
1j"
1x!
b1110100001001000 7#
b11110100001001000 8#
b1 9#
b1110100001001000 :#
1;#
10#
02#
1.#
1/#
1+#
14#
05#
01#
#260000
0Z
0>#
#270000
1Z
08"
07"
0:"
06"
19"
0t"
0[!
02"
1,"
0."
1C!
0c!
0@!
0_!
1^!
0]!
0=!
0\!
0-"
0j
0g
0b
0`
0_
0^
1m
b1100 p!
0g!
0W!
0A"
0B"
1F"
0B#
0@"
0L"
0J"
0I"
0H"
0E"
0G"
1H#
0E#
b101100 y!
b1 k"
b1001 m"
b1001 n"
b111010000100100000001001110001000000000000110010000000000000000000000000000000100000000000001001 o"
1v!
1>#
0w!
0x!
b1 7#
0%#
13#
0"#
00#
1##
0.#
16#
0/#
0+#
0!#
04#
1&#
#280000
0Z
0>#
#290000
1Z
1s"
1."
0C!
1b!
1@!
1=!
1j
1g
1b
1`
1_
1^
0m
b1101 p!
1B#
1f!
1L"
1J"
1I"
1H"
0H#
1E#
b101110 y!
b1110100001001000 k"
b111010000100100000001001110001000000000000110010000000000000000100000000000000100000000000001001 o"
1>#
1x!
b1110100001001000 7#
#300000
0Z
0>#
#310000
1Z
0q"
09"
1~!
1Y!
0?!
0B!
11"
14"
0."
1C!
0`!
1@!
0^!
0=!
1-"
0l
1j
0i
0g
0b
0`
0_
0^
1m
1i!
b1110 p!
1D"
0D#
0F"
0B#
0G#
0L"
0J"
0I"
1V!
0H"
0d!
1H#
1E#
b10010000000110 y!
b1001 k"
b0 m"
b1001 n"
b111010000100100000001001110001000000000000110010111010000100100000000000000000100000000000001001 o"
b1001 p"
1>#
1w!
0x!
b1001 7#
0##
1X#
0&#
0S#
0W#
1U#
0T#
#320000
0Z
0>#
#330000
1Z
19"
0Y!
1X!
1B!
04"
1."
0C!
1^!
13"
1l
0m
b1111 p!
0D"
1F"
1G#
1C"
0H#
b10100000100110 y!
b1010 k"
b0 m"
b1010 n"
b1110100001001000 p"
1>#
1x!
b1010 7#
06#
0X#
15#
1M#
1K#
1J#
1R#
1I#
#340000
0Z
0>#
#350000
1Z
1:"
09"
1*"
0X!
0B!
0+"
01"
0,"
0."
0@!
1_!
0^!
03"
0-"
0l
0j
b10000 p!
0F"
0G#
0C"
0V!
1G"
0E#
b10110 y!
b0 k"
b0 m"
b0 n"
b111010000100100000001001110001000000000000110010000000000000101000000000000000100000000000001001 o"
b10 p"
0v!
1>#
0w!
1t!
1i"
0x!
0u!
b0 7#
1<#
03#
05#
0M#
0K#
1W#
0J#
0U#
0R#
0I#
#360000
0Z
0>#
#370000
1Z
0s"
17"
1t"
1Y!
0B!
14"
1."
1C!
1c!
0b!
0@!
1\!
0l
0j
1m
b10001 p!
1g!
1D"
1A"
0G#
0f!
1H#
0E#
b10010010101 y!
b1 k"
b0 m"
b1 n"
b111010000100100000001001110001000000000000110010000000000000101000000000000000000000000000001001 o"
b0 p"
1>#
0i"
1x!
b1 7#
0<#
0##
16#
0&#
0W#
#380000
0Z
0>#
#390000
1Z
1q"
07"
19"
0~!
0B!
0."
1C!
1`!
1@!
1^!
0\!
1-"
0l
1j
1m
0i!
b10010 p!
0A"
1F"
0G#
1d!
1H#
1E#
b10000111101 y!
b1001 k"
b1001 m"
b111010000100100000001001110001000000000000110010000000000000101000000000000000010000000000001001 o"
b1 p"
1>#
1w!
0j"
0x!
b1001 7#
b1001 8#
b0 9#
b1001 :#
0;#
1##
1X#
1&#
#400000
0Z
0>#
#410000
1Z
1@#
17"
0r"
0}!
0""
1~!
0t"
0Y!
0?!
0B!
04"
0<!
1."
0C!
0A!
0c!
0>!
0@!
0a!
0=!
1\!
0l
0k
0j
0i
0h
0g
0f
0e
0d
0c
0b
0a
0`
0_
0^
0m
0h!
1i!
0k!
1m!
b10011 p!
0g!
0D"
1A"
0G#
0f"
0e"
0e!
1H#
0E#
0g"
b10111000 y!
b0 k"
b1 m"
b0 n"
b111010000100100000001001110001000000000000001001000000000000101000000000000000010000000000001001 o"
b1001 p"
0b"
0d"
1>#
0^"
0X"
0Y"
0_"
0]"
0a"
0["
0c"
0Z"
0`"
0\"
1x!
b1 7#
b0 Y#
b10010000000000000000000000000000000000000000000000000000000000000000000000000000000000000000000000000000000000000000000000000000000000000000000010010000000000000000 Z#
0##
06#
1U#
#420000
0Z
0>#
#430000
1Z
0@#
1s"
07"
1%"
16"
09"
0~!
1t"
1[!
11"
1,"
0<!
10"
0."
1C!
1c!
1b!
0>!
1@!
0^!
0=!
0\!
0-"
1j
0h
0g
0f
0e
0d
0c
0b
0a
0`
0_
0^
1m
0i!
0m!
1n!
b10100 p!
1g!
0A"
0A#
0O"
1U!
0F"
0B#
1@"
0M"
1f!
0L"
0J"
0I"
1V!
0H"
0N"
0C#
1E#
0K"
b110000100011011 y!
b1001 k"
b1010 m"
b1 n"
1v!
1>#
0w!
0x!
b1001 7#
1%#
03#
1##
02#
16#
0&#
#440000
0Z
0>#
#450000
1Z
1&"
0s"
0%"
1?!
0B!
1;!
01"
00"
1."
0b!
0@!
0l
0j
1i
0n!
1o!
b10101 p!
1D#
0U!
0G#
0f!
0V!
0E#
b100011001 y!
b10001 k"
1l"
b0 m"
b10001 n"
1>#
1x!
b10001 7#
0%#
0##
12#
#460000
0Z
0>#
#470000
1Z
0&"
0q"
17"
1r"
06"
1}!
1""
1~!
0[!
1Y!
0?!
1B!
0;!
14"
0,"
0C!
0`!
0@!
1a!
0=!
1\!
1l
0j
0i
0g
0m
1h!
1i!
1k!
0o!
b10001 p!
1D"
1A"
0D#
0B#
1G#
0@"
1e!
0d!
0H#
0E#
b10010010101 y!
b10 k"
0l"
b1 m"
b1 n"
b1 p"
0v!
1>#
b10 7#
03#
00#
02#
1&#
0U#
#480000
0Z
0>#
#490000
1Z
1q"
07"
19"
0~!
1?!
0."
0C!
1`!
1^!
0\!
1-"
1i
0m
0i!
b10010 p!
0A"
1D#
1F"
1d!
0H#
b10000111101 y!
b10010 k"
b1001 m"
b10 n"
b111010000100100000001001110001000000000000001001000000000000101000000000000000100000000000001001 o"
b10 p"
1>#
1w!
0x!
b10010 7#
b10010 8#
b10010 :#
0%#
1##
06#
0X#
1&#
15#
1W#
#500000
0Z
0>#
